…
``` r
set.seed(10)

iris_with_missing = iris %>% 
  map_df(~replace(.x, sample(1:150, 20), NA)) %>%
  mutate(Species = as.character(Species))

iris_with_missing
```

    ## # A tibble: 150 x 5
    ##    Sepal.Length Sepal.Width Petal.Length Petal.Width Species
    ##           <dbl>       <dbl>        <dbl>       <dbl> <chr>  
    ##  1          5.1         3.5          1.4         0.2 setosa 
    ##  2          4.9         3            1.4         0.2 setosa 
    ##  3          4.7         3.2          1.3         0.2 setosa 
    ##  4          4.6         3.1          1.5        NA   setosa 
    ##  5          5           3.6          1.4         0.2 setosa 
    ##  6          5.4         3.9          1.7         0.4 setosa 
    ##  7         NA           3.4          1.4         0.3 setosa 
    ##  8          5           3.4          1.5         0.2 setosa 
    ##  9          4.4         2.9          1.4         0.2 setosa 
    ## 10          4.9         3.1         NA           0.1 setosa 
    ## # … with 140 more rows
…
``` r
output = vector("list", length = 5) ##define an output list
for (i in 1:5) {
  output[[i]] = replace_missing(iris_with_missing[[i]])
  } ##for-loop apply the function
output = map(iris_with_missing, replace_missing)
as_tibble(output) ##make the output an an tidied table form
```

    ## # A tibble: 150 x 5
    ##    Sepal.Length Sepal.Width Petal.Length Petal.Width Species
    ##           <dbl>       <dbl>        <dbl>       <dbl> <chr>  
    ##  1         5.1          3.5         1.4         0.2  setosa 
    ##  2         4.9          3           1.4         0.2  setosa 
    ##  3         4.7          3.2         1.3         0.2  setosa 
    ##  4         4.6          3.1         1.5         1.19 setosa 
    ##  5         5            3.6         1.4         0.2  setosa 
    ##  6         5.4          3.9         1.7         0.4  setosa 
    ##  7         5.82         3.4         1.4         0.3  setosa 
    ##  8         5            3.4         1.5         0.2  setosa 
    ##  9         4.4          2.9         1.4         0.2  setosa 
    ## 10         4.9          3.1         3.77        0.1  setosa 
    ## # … with 140 more rows
…
file_tidy = file_nest %>%
  pivot_longer(week_1:week_8,
               names_to = "week",
               values_to = "data") %>%
  mutate(files = str_remove(file_names, ".csv"),
         week = str_remove(week, "week_")) %>%
  separate(file_names, into = c("group", "subject_id"), sep = "_") %>%
  mutate(group = recode(group, "con" = "control", "exp" = "experimental")) 

file_tidy
```

    ## # A tibble: 160 x 5
    ##    group   subject_id week   data files 
    ##    <chr>   <chr>      <chr> <dbl> <chr> 
    ##  1 control 01.csv     1      0.2  con_01
    ##  2 control 01.csv     2     -1.31 con_01
    ##  3 control 01.csv     3      0.66 con_01
    ##  4 control 01.csv     4      1.96 con_01
    ##  5 control 01.csv     5      0.23 con_01
    ##  6 control 01.csv     6      1.09 con_01
    ##  7 control 01.csv     7      0.05 con_01
    ##  8 control 01.csv     8      1.94 con_01
    ##  9 control 02.csv     1      1.13 con_02
    ## 10 control 02.csv     2     -0.88 con_02
    ## # … with 150 more rows
…
